{
    "playlists": [
        {
            "title": "Chilled",
            "feedback_question": "Was this Chilled?",
            "videos": [
                {
                    "url": "https://drive.google.com/a/bombaysour.com/uc?id=1GZdOsXEXdbtvB_pw32P5e9HcDjzqpRCH&export=download",
                    "file_extension": "mp4"
                }
            ]
        },
        {
            "title": "Energized",
            "feedback_question": "Was this Energizing?",
            "videos": [
                {
                    "url": "https://drive.google.com/uc?id=1-wxRVnQ7fbUbwzJXV75RkYzQlbzkoT3A&export=download",
                    "file_extension": "mp4"
                }
            ]
        },
        {
            "title": "Free",
            "feedback_question": "Was this Freeing?",
            "videos": [
                {
                    "url": "https://drive.google.com/a/bombaysour.com/uc?id=1g9-GX2Qnx5P4mGeJDmqhEDPjtnLCtdP8&export=download",
                    "file_extension": "mp4"
                }
            ]
        }
    ]
}